<?xml version="1.0" encoding="utf-8"?>
<!-- Generator: Adobe Illustrator 22.0.1, SVG Export Plug-In . SVG Version: 6.00 Build 0)  -->
<svg version="1.1" id="Ebene_1" xmlns="http://www.w3.org/2000/svg" xmlns:xlink="http://www.w3.org/1999/xlink" x="0px" y="0px"
	 viewBox="0 0 323.7 65" style="enable-background:new 0 0 323.7 65;" xml:space="preserve">
<style type="text/css">
	.st0{enable-background:new    ;}
	.st1{fill:#008B75;}
	.st2{fill:#F57E5D;}
</style>
<g class="st0">
	<path class="st1" d="M96.5,37.7c-1.9,2.1-4.2,3.2-7.1,3.2s-5.2-1-7.1-2.9s-2.9-4.5-2.9-7.6c0-3.2,1-5.8,3-7.8s4.3-3.1,6.8-3.1
		c2.6,0,4.7,1.1,6.4,3.2v-2.8h6v18.8c0,1.9-0.3,3.6-1,5.1c-0.7,1.5-1.6,2.7-2.7,3.5c-2.2,1.8-4.8,2.6-7.8,2.6
		c-1.6,0-3.2-0.3-4.9-0.8c-1.7-0.5-3.1-1.3-4.4-2.2l2.3-4.5c2,1.5,4.1,2.2,6.3,2.2s3.9-0.5,5.2-1.6C95.8,41.8,96.5,40,96.5,37.7z
		 M95.6,30.1c0-1.7-0.5-3.1-1.4-4.1c-1-1-2.1-1.5-3.6-1.5S88,25,87,26c-1,1-1.5,2.3-1.5,4c0,1.7,0.5,3.1,1.5,4.1s2.2,1.6,3.7,1.6
		c1.4,0,2.6-0.5,3.6-1.6S95.6,31.8,95.6,30.1z"/>
	<path class="st1" d="M118.6,25.1c-1.8,0-3.1,0.6-4,1.9s-1.3,2.9-1.3,5v9.3h-6V19.8h6v2.8c0.8-0.9,1.7-1.6,2.9-2.2s2.3-0.9,3.5-1
		l0,5.6H118.6z"/>
	<path class="st1" d="M144.9,30.5c0,3.1-1.1,5.7-3.2,7.9c-2.2,2.1-4.9,3.2-8.1,3.2c-3.3,0-6-1.1-8.1-3.2c-2.2-2.1-3.2-4.8-3.2-7.9
		s1.1-5.8,3.2-7.9c2.2-2.1,4.9-3.2,8.1-3.2c3.3,0,6,1.1,8.1,3.2C143.8,24.8,144.9,27.4,144.9,30.5z M128.2,30.5
		c0,1.8,0.5,3.2,1.5,4.3s2.3,1.7,3.8,1.7c1.6,0,2.8-0.6,3.8-1.7s1.5-2.5,1.5-4.3s-0.5-3.2-1.5-4.3s-2.3-1.7-3.8-1.7
		c-1.6,0-2.8,0.6-3.8,1.7S128.2,28.8,128.2,30.5z"/>
	<path class="st1" d="M163.2,31.4V19.8h6v21.5h-6v-2.8c-1.5,2.1-3.4,3.2-5.8,3.2c-2.4,0-4.3-0.7-5.9-2.2c-1.6-1.5-2.4-3.7-2.4-6.6
		v-13h6v11.7c0,3.3,1.2,5,3.6,5c1.2,0,2.2-0.4,3.1-1.3S163.2,33,163.2,31.4z"/>
	<path class="st1" d="M187.4,19.4c2.5,0,4.7,1,6.7,3.1c2,2.1,2.9,4.7,2.9,7.9c0,3.2-1,5.8-2.9,8c-2,2.1-4.3,3.2-6.9,3.2
		c-2.6,0-4.7-1.1-6.3-3.2v10.6h-6V19.8h6v2.4C182.8,20.3,184.9,19.4,187.4,19.4z M180.8,30.6c0,1.7,0.5,3.2,1.5,4.3
		c1,1.1,2.2,1.7,3.5,1.7s2.6-0.6,3.6-1.7s1.6-2.5,1.6-4.3s-0.5-3.2-1.5-4.4c-1-1.2-2.2-1.8-3.6-1.8s-2.6,0.6-3.6,1.7
		C181.3,27.4,180.8,28.8,180.8,30.6z"/>
</g>
<g class="st0">
	<path class="st2" d="M208.7,18.5V20h5.2v4.3h-5.2v17h-6v-17h-2.5V20h2.5v-1.3c0-2.3,0.7-4.2,2.1-5.6s3.2-2.1,5.3-2.1s4,0.8,5.8,2.4
		l-2.2,4c-0.9-1-1.9-1.5-2.9-1.5c-0.6,0-1.1,0.2-1.5,0.7C208.9,17,208.7,17.7,208.7,18.5z"/>
	<path class="st2" d="M218.1,17c-0.7-0.7-1-1.5-1-2.5s0.3-1.8,1-2.5c0.7-0.7,1.5-1,2.5-1s1.8,0.3,2.5,1c0.7,0.7,1,1.5,1,2.5
		s-0.3,1.8-1,2.5c-0.7,0.7-1.5,1-2.5,1S218.8,17.7,218.1,17z M223.6,41.3h-6V19.8h6V41.3z"/>
	<path class="st2" d="M235.3,29.3v12h-6V19.8h6v2.4c1.8-1.8,3.9-2.8,6.1-2.8s4.2,0.8,5.7,2.4c1.5,1.6,2.3,3.7,2.3,6.4v13.1h-6V29.1
		c0-3.3-1.2-5-3.6-5c-1.2,0-2.2,0.4-3.1,1.3C235.8,26.4,235.3,27.6,235.3,29.3z"/>
	<path class="st2" d="M263.5,41.6c-2.5,0-4.8-1.1-6.8-3.2s-3-4.8-3-8s1-5.8,2.9-7.9s4.2-3.1,6.8-3.1s4.7,0.9,6.4,2.8V11.6h6v29.7h-6
		v-2.8C268.2,40.6,266,41.6,263.5,41.6z M259.7,30.6c0,1.7,0.5,3.2,1.6,4.3c1,1.1,2.3,1.7,3.6,1.7c1.4,0,2.6-0.6,3.5-1.7
		c1-1.1,1.5-2.5,1.5-4.3c0-1.7-0.5-3.2-1.5-4.4c-1-1.2-2.2-1.7-3.6-1.7c-1.4,0-2.6,0.6-3.6,1.8C260.2,27.4,259.7,28.9,259.7,30.6z"
		/>
	<path class="st2" d="M300.2,38.2c-2.4,2.3-5.3,3.4-8.5,3.4c-3.3,0-6-1-8.1-3c-2.1-2-3.2-4.7-3.2-8.1s1.1-6.1,3.3-8.1
		c2.2-2,4.7-3,7.7-3s5.5,0.9,7.5,2.7c2.1,1.8,3.1,4.2,3.1,7.4v3.2h-15.7c0.2,1.2,0.8,2.1,1.8,2.9c1,0.7,2.2,1.1,3.5,1.1
		c2.1,0,3.8-0.7,5.2-2.1L300.2,38.2z M294.4,25.4c-0.8-0.7-1.8-1-3-1s-2.3,0.4-3.3,1.1c-1,0.7-1.6,1.7-1.7,2.9h9.4
		C295.7,27.1,295.2,26.1,294.4,25.4z"/>
	<path class="st2" d="M317.6,25.1c-1.8,0-3.1,0.6-4,1.9s-1.3,2.9-1.3,5v9.3h-6V19.8h6v2.8c0.8-0.9,1.7-1.6,2.9-2.2s2.3-0.9,3.5-1
		l0,5.6H317.6z"/>
</g>
<g id="group-of-people" transform="translate(64.23 58.646)">
	<g id="Gruppe_2" transform="translate(0)">
		<path id="Pfad_2" class="st1" d="M-20.6-28.6c0-1.4-0.4-2.7-1.3-3.9c1.9-1.8,4.9-1.6,6.7,0.3c0.8,0.9,1.2,2,1.2,3.2
			c0,0-1.1,10-4.8,10c-1.4,0-2.4-1.5-3.2-3.3C-21.3-24.3-20.9-26.4-20.6-28.6L-20.6-28.6z"/>
		<path id="Pfad_3" class="st1" d="M-18.8-34.1c-1.5,0-2.9-0.8-3.7-2.2c0.7-1,1.1-2.2,1.1-3.4c0-0.6-0.1-1.1-0.2-1.7
			c1.7-1.5,4.4-1.4,5.9,0.3c1.5,1.7,1.4,4.4-0.3,5.9C-16.7-34.4-17.7-34.1-18.8-34.1z"/>
		<path id="Pfad_4" class="st1" d="M-35.5-33.7c1.2,0,2.3,0.4,3.2,1.2c-0.8,1.1-1.3,2.5-1.3,3.9l0,0.1c0.2,2.1,0.7,4.2,1.3,6.2
			c-0.7,1.8-1.8,3.3-3.2,3.3c-3.6,0-4.8-10-4.8-10C-40.3-31.6-38.2-33.7-35.5-33.7z"/>
		<path id="Pfad_5" class="st1" d="M-31.8-36.3c-1.1,2-3.7,2.8-5.7,1.7c-2-1.1-2.8-3.7-1.7-5.7c1.1-2,3.7-2.8,5.7-1.7
			c0.3,0.2,0.6,0.3,0.8,0.6C-33.3-39.6-32.9-37.7-31.8-36.3z"/>
		<path id="Pfad_6" class="st1" d="M-27.1-34.3c3.1,0,5.7,2.5,5.7,5.7c0,0,0,0,0,0c0,0-1.3,11.9-5.7,11.9s-5.7-11.9-5.7-11.9
			C-32.8-31.8-30.3-34.3-27.1-34.3L-27.1-34.3z"/>
		<circle id="Ellipse_1" class="st1" cx="-27.1" cy="-39.7" r="5"/>
	</g>
</g>
<path class="st1" d="M21.6,47.7l0.7,0.5c9.1,6.6,21.3,6.6,30.3,0c11.4-8.4,13.9-24.5,5.6-35.9C49.9,0.9,33.8-1.6,22.3,6.8
	c-11.4,8.4-13.9,24.5-5.6,35.9l0.5,0.7L2.8,57.8l4.4,4.4L21.6,47.7z M37.4,8.2C37.4,8.2,37.4,8.2,37.4,8.2c5.2,0,10.1,2,13.7,5.7
	c3.7,3.7,5.7,8.5,5.7,13.7s-2,10.1-5.7,13.7C47.5,45,42.6,47,37.4,47c0,0,0,0,0,0h0C26.7,47,18,38.3,18,27.6
	C18,16.9,26.7,8.2,37.4,8.2z"/>
</svg>
